…
  filter(n_items_ordered > 10000) %>% 
  ggplot(aes(x = n_items_ordered, y = aisle )) + geom_point()
```

<img src="p8105_hw3_sm4594_files/figure-gfm/aisle_plot-1.png" width="90%" />

``` r
instacart %>% 
  group_by(aisle) %>%
    summarize(
    n_items_ordered = n())
```

    ## # A tibble: 134 x 2
    ##    aisle                  n_items_ordered
    ##    <chr>                            <int>
    ##  1 air fresheners candles            1067
    ##  2 asian foods                       7007
    ##  3 baby accessories                   306
    ##  4 baby bath body care                328
    ##  5 baby food formula                13198
    ##  6 bakery desserts                   1501
    ##  7 baking ingredients               13088
    ##  8 baking supplies decor             1094
    ##  9 beauty                             287
    ## 10 beers coolers                     1839
    ## # … with 124 more rows
…
